"apartment","size.m2","storage.m2","floor","garage","price"
1,54,8.37368455328063,4,0,127768
2,60,7.94842180630814,4,0,208832
3,96,15.4026630335958,1,1,317004
4,66,6.03843250866295,3,0,218989
5,68,11.6791175021882,5,0,182615
6,99,12.5733647493985,5,1,300864
7,74,8.04033070434299,2,0,198032
8,40,5.60363348239141,3,0,137124
9,51,9.0991228553589,1,1,127430
10,56,8.84757071426535,3,0,179621
11,89,16,6,0,229870
12,72,10.0814063469481,6,1,202558
13,73,8.44170338043156,4,1,215469
14,67,12.59911252154,6,1,172922
15,54,8.88161455569972,5,1,159097
16,101,10.3733000923313,4,1,296751
17,75,11.4525112593305,2,0,253250
18,26,4.53570515294081,4,0,114111
19,79,9.68346878108197,6,1,216991
20,56,9.99580484620894,5,1,180844
21,44,2.60731415992005,3,1,84286
22,61,7.69430792158492,0,1,159290
23,44,5.64096532822153,3,1,122583
24,50,9.88478131593427,0,0,127390
25,52,5.32070848887795,1,0,159714
26,31,7.40357082169624,3,0,62814
27,82,13.4004118972829,3,1,260724
28,68,11.4352886500962,2,0,206618
29,42,7.48524913685409,4,1,102519
30,90,12.7612925521067,3,0,204101
31,74,8.73071642533182,0,0,161059
32,59,8.34578841617822,4,0,150358
33,83,11.207583090933,6,0,231853
34,83,9.40251079475102,4,1,243698
35,81,8.96463855877344,1,1,230481
36,79,11.3881562093448,1,0,203712
37,76,11.5248623371295,5,1,213311
38,64,9.02621150895835,0,1,165677
39,59,8.65481505910886,3,0,194955
40,57,7.19150580261667,3,1,154332
41,51,4.23256748559697,6,1,125953
42,61,12.6208769574545,2,1,175120
43,40,5.9734618898178,2,1,109120
44,108,14.0516213386077,6,1,289986
45,89,10.8690952869229,2,1,204980
46,43,6.4702767266201,4,0,57879
47,57,8.04936628162896,4,0,129554
48,56,8.83349505134396,3,0,167894
49,81,12.2590757888615,3,1,234583
50,63,8.43086585358948,5,1,169940
51,70,10.0533006166674,3,1,138177
52,64,10.3140839558045,3,0,222657
53,64,10.5429493739737,7,0,145798
54,92,14.3212129238643,8,1,208884
55,60,4.55168052435798,5,0,161596
56,95,14.4112860536742,6,1,271120
57,34,7.05933495183555,2,0,69702
58,77,8.04768983033492,5,0,199227
59,67,15.894072670419,3,1,211182
60,69,8.04006684197649,5,1,182438
