"neighborhood","community","hour_inc2010a","hour_inc2015a","hour_inc2015b","household_size2010","household_size2015"
"A","X",7.71976217672389,9.6423789063886,10.537006130141,1,3
"A","X",7.88491125525836,9.62365551589113,9.98632651679313,5,2
"A","X",8.77935415707456,9.53073064819655,9.98333482886204,2,3
"A","X",8.03525419571229,9.47374336033063,9.24196618842445,4,6
"A","X",8.06464386758047,9.7814202334098,10.3951926719441,3,4
"A","X",8.85753249344164,10.1655895864795,9.89463290965411,1,4
"A","X",8.2304581029946,8.99289475103964,9.67162853731946,6,1
"A","X",7.36746938269673,10.1059902166861,9.29398710367085,3,2
"A","X",7.65657357405324,10.6183375232083,9.85011875167686,5,5
"A","X",7.77716901495002,11.0187870091202,9.57546943249165,3,5
"A","X",8.61204089871973,10.6505879961003,9.80148473983608,2,4
"A","X",8.17990691352868,10.378387381898,9.3912000061182,3,2
"A","X",8.20038572529703,9.13663480044283,10.8437947414728,4,2
"A","X",8.05534135797256,9.69924664599661,9.99199873639601,4,3
"A","X",7.72207943262296,9.82397677170869,10.5374725386362,3,3
"A","X",8.89345656840154,10.3517619513784,8.69915016487117,3,2
"A","X",8.24892523911462,9.94716433299811,9.77340108500258,3,4
"A","X",7.01669142168518,9.37067568596991,9.66225885420396,3,0
"A","X",8.35067795078184,10.8422178540471,9.38853691031704,3,4
"A","X",7.76360429613603,10.455695645898,10.773304577112,0,5
"A","X",7.46608814700658,10.1187151362455,9.29235904011525,8,6
"A","X",7.89101254267085,10.6090543051629,10.159195130204,2,4
"A","X",7.48699777584638,9.33061285638251,10.4232181427898,1,2
"A","X",7.63555438535443,10.3304101488949,10.089095094209,5,2
"A","X",7.68748036607537,9.73854381184329,9.56237226125224,3,5
"A","Y",7.15665334462879,10.3418727609254,10.4705829033621,6,0
"A","Y",8.41889352224726,9.96958902266996,10.0852940409204,1,5
"A","Y",8.07668655891826,10.3164803565157,9.46825104680898,6,3
"A","Y",7.43093153149403,10.6677588075297,9.30597547619897,4,3
"A","Y",8.62690746053496,10.0036450451584,11.0433587172466,5,6
"A","Y",8.21323211073841,10.508779318476,9.66074842729078,6,2
"A","Y",7.85246425850386,9.40578298242601,9.07221417304098,3,3
"A","Y",8.44756283052251,9.63919777978199,10.2666296813768,6,2
"A","Y",8.43906674376652,10.7596088556941,10.1551151280304,2,2
"A","Y",8.41079054081874,10.188693986512,9.3230828321387,0,4
"A","Y",8.34432012705004,8.97388858978313,9.02852179320903,2,4
"A","Y",8.27695882676879,9.31798127395881,9.9418487414207,4,3
"A","Y",7.96904414471164,9.89960949220544,10.5696981458547,2,5
"A","Y",7.84701866813004,10.4328897021672,10.3180620175911,7,7
"A","Y",7.80976449949381,9.94905837214239,9.75353128791901,5,3
"A","Y",7.65264651053974,10.3120937360103,9.58290588420781,3,4
"A","Y",7.8960413609902,10.4795026888939,10.1355333783753,3,2
"A","Y",7.36730182421587,10.8355274144315,10.0786766736081,3,3
"A","Y",9.08447798266926,10.0280083666375,10.3148558733464,5,1
"A","Y",8.6039809991525,9.97400904690955,9.80210102485555,3,2
"A","Y",7.43844570839833,9.12338132042887,10.4496770266015,0,1
"A","Y",7.79855758235046,10.0496637970439,9.58459423633188,4,2
"A","Y",7.76667232318839,9.71407497105222,9.83472764994002,2,3
"A","Y",8.38998255916816,9.51299520859795,10.370407261863,5,4
"A","Y",7.95831546676408,9.91004688447623,10.4949858043136,2,4
"A","Z",8.12665925699738,10.5074715863718,9.03074764927331,4,1
"A","Z",7.98572662232565,9.00362575565571,10.0535952035081,3,5
"A","Z",7.97856477135434,9.78636035639729,10.3043895058673,2,3
"A","Z",8.68430114200723,10.0583186417914,9.27458784325468,0,1
"A","Z",7.88711450717037,9.55339621497252,10.2403127999376,2,1
"A","Z",8.75823530221477,10.1669514712496,9.5859128648016,2,1
"A","Z",7.22562359788489,10.2057149603079,10.5101265060822,6,2
"A","Z",8.29230687481803,9.983481920362,10.2692410160513,1,3
"A","Z",8.06192712192231,8.76705090311999,10.3845261474978,2,1
"A","Z",8.10797078437199,11.2857290729333,10.0603596646435,4,1
"A","Z",8.18981974137994,9.8973503712659,10.4318242170789,2,5
"A","Z",7.74883827344535,10.3255966407938,10.6902572641573,3,0
"A","Z",7.83339630816529,10.1368832455183,10.9831240077278,0,2
"A","Z",7.49071230844646,10.5123366174092,9.98580247262547,4,3
"A","Z",7.46410438676221,10.408829723187,8.8754744548338,2,2
"A","Z",8.15176432070213,9.89510341438575,10.015763002297,1,7
"A","Z",8.22410488931471,10.1890838861043,10.102780604225,2,0
"A","Z",8.02650211336525,9.52729558443805,9.9223273264278,4,6
"A","Z",8.46113373393987,10.4284615054497,10.2841443103885,2,3
"A","Z",9.02504234281357,9.76948083055782,10.5053389822571,2,2
"A","Z",7.75448441697173,11.2083866768941,9.74100878491609,1,1
"A","Z",6.84541556217959,9.17447555215591,9.85295233642194,3,2
"A","Z",8.50286926223113,9.76800637851699,10.1989211044002,1,1
"A","Z",7.6453996187088,10.4126899313796,9.72488812925543,1,2
"A","Z",7.65599569176632,10.2550662734393,10.0456336917441,1,3
"B","X",7.51278568484835,8.7052594807425,8.01914620055735,6,1
"B","X",6.8576134964745,8.50160962889624,8.44005013930119,2,2
"B","X",6.38964114387273,9.07223785235535,8.33612226219794,1,5
"B","X",7.09065173987458,8.99284629341654,8.57318815163638,5,0
"B","X",6.93055431878048,8.10485938136797,8.65334773603467,2,4
"B","X",7.00288209294994,9.01727553356693,9.19115257127319,5,6
"B","X",7.19264020056317,9.09511515784623,9.49105650126132,1,4
"B","X",6.8146699841038,9.08736319849092,8.63630823545623,2,0
"B","X",7.32218827425942,8.47249147869866,8.501580508811,2,3
"B","X",6.88975671909062,9.23806663915131,8.47915557050525,0,4
"B","X",7.16589098195785,9.68928506847962,8.79270563681816,4,0
"B","X",7.54841950657467,9.22811820158991,8.88048546592372,2,5
"B","X",7.2175907454169,8.43220576481283,9.24180876691914,2,4
"B","X",6.83703420723439,8.78217726515405,8.8393375789158,2,2
"B","X",7.57440380922555,9.1730518097768,7.96075536556999,3,4
"B","X",7.49675192798106,8.67647718434087,8.95428286222493,3,4
"B","X",7.27419847975403,7.92117683249236,9.59359340532578,8,1
"B","X",7.11936586755572,9.44212541001411,9.59580063425516,2,4
"B","X",6.68604696198031,8.58526119418774,8.60551839094438,4,6
"B","X",7.680326224265,8.71321986461586,8.22611172818121,7,5
"B","X",6.69987020642644,9.75195030450227,10.2290302459326,3,4
"B","X",8.09366649650829,8.6129275351973,8.91878902876029,2,4
"B","X",7.76630531309259,9.42286577009465,8.95127437494719,5,3
"B","X",6.88214982044976,8.36965856059061,9.21028709434907,1,2
"B","X",6.48678954984661,8.82272879846301,8.19298027169044,3,1
"B","Y",6.64479671815035,8.96322199043176,8.63589044440436,3,5
"B","Y",7.12844185457826,8.41567428778782,8.229778797355,2,4
"B","Y",6.87665406076881,8.68262586754554,8.6534526929947,2,5
"B","Y",6.82622870030113,8.98557922353584,9.05942471650228,6,0
"B","Y",6.52419071636749,9.33534798436697,8.31764527100654,4,2
"B","Y",6.97748613759554,8.17472672828745,9.29499133968366,4,4
"B","Y",6.60754776527146,8.82512288039437,9.14467201440867,4,1
"B","Y",6.16602903170593,9.37820321927274,8.54789248718968,5,4
"B","Y",6.80988673985612,8.7305954200112,9.11316247119053,4,4
"B","Y",7.45949830453038,9.11364596083647,9.37404058124692,4,2
"B","Y",6.7123265186958,9.24611428503222,9.53054762663087,1,3
"B","Y",7.30398216111252,9.13391750766584,8.89357586067674,4,4
"B","Y",6.19105864585542,9.32662883973569,8.95318160304448,4,2
"B","Y",6.97221901723773,8.93864566951131,8.95664293250904,4,1
"B","Y",7.25970360197173,8.79316174320394,9.72073087802752,4,3
"B","Y",7.15057668108336,7.67842552398551,9.562535946139,1,1
"B","Y",7.05283809707447,8.95352949076026,9.41720078387852,1,1
"B","Y",6.67964699584731,9.21514234817999,8.85632960007965,4,4
"B","Y",6.57514782698321,9.26769942043408,9.1866207170832,5,4
"B","Y",6.48793560469754,8.72236082434337,9.20164516561035,2,2
"B","Y",7.05882329855006,9.88975145488758,8.47916335285534,5,2
"B","Y",6.5262626929076,9.14321220981441,8.13584774233963,3,4
"B","Y",6.75472127814967,9.06315792922944,9.32091501382581,8,5
"B","Y",6.87195390390088,9.63613338973426,8.23534473440979,3,1
"B","Y",7.9219310026161,8.64076688934037,9.0008418442421,4,9
"B","Z",6.67402504915227,8.77483068803764,9.12512391067417,1,0
"B","Z",7.11769328614243,10.1987262400249,9.28193369515294,2,1
"B","Z",7.03898042478186,9.00556459361044,9.09471311875741,0,1
"B","Z",6.51907168293494,9.81678421070415,8.63357309685144,2,3
"B","Z",6.9643459569382,8.28074667754274,9.49318292994773,5,1
"B","Z",7.72227542921167,8.90474159897855,9.86931688345312,2,3
"B","Z",7.22575202653961,9.18921195181842,9.44058940446272,2,4
"B","Z",7.02061646099647,9.1500192726029,8.02817454933801,0,2
"B","Z",6.78875158383019,8.49718187024458,9.69978809270147,0,2
"B","Z",5.97337638922974,9.00962963731268,8.97197202690687,0,1
"B","Z",7.56566860670709,8.46128967344401,9.26245713965965,1,2
"B","Z",6.26967996453759,9.35635166262214,9.31101661793553,2,4
"B","Z",7.36997375543867,9.54238754493032,8.95165696339665,3,1
"B","Z",7.95455178460874,7.88750615175629,8.96236840117564,1,0
"B","Z",6.2780534195141,9.61784673115007,9.50957853466545,3,5
"B","Z",7.35089216768736,8.37947775159575,9.35580096124312,2,1
"B","Z",6.86890125529877,9.22738463449132,9.49513112302212,1,2
"B","Z",6.21392792042726,9.3299513190713,10.1914633476152,0,0
"B","Z",6.24266617310912,8.90005508594928,9.33220793184704,2,5
"B","Z",6.1992319132127,8.6774430215701,9.10369057869265,0,4
"B","Z",6.73454673891485,9.08266051062103,7.89468344471219,3,4
"B","Z",6.26912220750205,9.21940935035723,10.3458570016231,1,2
"B","Z",7.34395838648791,9.44165140997435,8.75866158910185,2,3
"B","Z",8.05005447026284,7.97383150804902,10.1873673575477,3,1
"B","Z",6.35648476198241,8.18181036597049,9.18732178400249,1,1
"C","X",9.39386942373759,11.7152011705941,11.7692150994484,1,10
"C","X",9.38452112050046,11.5233144235558,10.9451448394119,4,7
"C","X",9.16610128947506,11.2176444744538,11.2557353773491,2,3
"C","X",8.4958116958615,11.3575892035555,11.1069789898211,2,4
"C","X",8.94027369668467,11.4585874588205,10.9069396503133,3,2
"C","X",8.85980233241488,9.66953860076716,10.9398030876888,3,2
"C","X",9.28149476661024,11.5551385483194,11.5064171679221,2,3
"C","X",8.81378062194809,10.7575062017188,10.8992709265142,4,2
"C","X",9.48848669334281,11.1153084153156,9.9811587527796,3,1
"C","X",8.81270957111649,10.8524210995582,10.9020553755851,1,7
"C","X",9.52635573278967,11.4359824770394,11.2698953027681,8,4
"C","X",8.47541149666697,10.8257637755222,11.3082278581757,2,5
"C","X",8.36992237762094,11.2592518829441,11.3082839087387,1,3
"C","X",10.6205199674712,10.8046575106805,10.1539492395655,2,1
"C","X",8.79157120591978,10.4536063954492,11.1843710290056,2,4
"C","X",9.14911379577036,11.6050052552201,11.4839296049735,2,0
"C","X",9.31828483701692,11.3704500056371,11.6382893407338,2,1
"C","X",8.75810968714563,11.8621311195782,10.8875193644779,0,5
"C","X",9.2584310221568,11.0325769662897,10.8390537069086,6,1
"C","X",9.18448226369254,11.5625013729141,11.743918915939,3,2
"C","X",8.89230974617915,11.9877095270095,10.1660359771103,2,2
"C","X",9.03264651676266,10.8592589424805,10.7815850115434,5,2
"C","X",8.98296637313077,10.3385244436224,11.2287310396787,3,2
"C","X",10.0642259495081,10.8803242164309,10.1911131173094,3,0
"C","X",8.62933195186359,10.8929793800073,11.1398139312159,4,5
"C","Y",8.45200186646267,11.0758402522547,11.9389320105261,4,7
"C","Y",9.01889419958554,11.8561524886596,10.9979696732818,2,7
"C","Y",9.15524037472157,10.8369280537473,10.8607729875182,3,3
"C","Y",9.21826173945509,11.1865023279025,11.237455857017,7,3
"C","Y",8.77081733364445,10.8861579675522,10.8604639146063,2,1
"C","Y",8.4683369330144,11.0102253542625,11.4067001870395,5,3
"C","Y",9.63159258804474,11.1570288317531,11.4522177322248,3,6
"C","Y",8.82517480602322,11.6641073480185,11.0013458306151,2,3
"C","Y",8.56724356867331,11.0606591887454,10.4116539211251,2,3
"C","Y",8.88186021552945,11.3564211600156,10.3408896362705,4,3
"C","Y",8.90141205282572,11.3894300148918,10.7035013171723,2,2
"C","Y",9.55496014485682,11.4573866354278,11.3986902502749,3,4
"C","Y",9.0423686460986,10.7128027239078,10.0208974126715,3,1
"C","Y",9.37702689259226,11.8134406070973,10.0568374206337,4,4
"C","Y",8.75035399141387,10.809521630353,10.6731100876199,2,4
"C","Y",9.1072226547908,10.9471079161751,11.1971974239903,3,2
"C","Y",8.83765704425458,11.7020251338571,10.5432169759175,2,6
"C","Y",9.04729176408679,11.6470419530728,11.443374518548,6,2
"C","Y",8.55231832101123,10.4550040637944,11.1666849850776,2,3
"C","Y",8.34459923333601,10.5634644997913,10.9146801908807,1,6
"C","Y",9.99860669237398,10.3209604703147,11.4094140682659,6,2
"C","Y",9.30035441183621,11.0909235963099,11.1941825814097,2,2
"C","Y",8.37436431918753,11.0824204339592,10.7770324863939,5,6
"C","Y",8.69441704165979,11.1820573436775,11.1155574672091,3,4
"C","Y",8.40725995770135,11.2760788571093,11.3237566789888,3,5
"C","Z",10.0994051744419,10.6990535770075,11.178141672431,1,2
"C","Z",9.65620648821676,10.5031507044506,10.6709948960253,1,4
"C","Z",8.86742747165182,11.5133925280375,11.4276011025321,1,1
"C","Z",9.27159702961604,11.3755306513032,11.5764681127793,2,2
"C","Z",8.79283002604057,10.2454167313356,11.1381372782717,2,3
"C","Z",8.76187655269221,10.9524262745754,11.0720523312311,2,1
"C","Z",8.60569858107488,10.5520260886218,10.9621874596101,2,2
"C","Z",8.70269136627024,9.96462446472902,12.0807079231514,0,2
"C","Z",9.82545373366835,11.0750600655941,11.1381577660679,0,4
"C","Z",8.97298593745728,10.9603941453707,10.92085298565,1,1
"C","Z",9.05962261821379,10.9513153662435,9.74604109890137,3,2
"C","Z",9.12184371479955,11.1080762709006,10.2173591174847,1,0
"C","Z",9.61623793924267,11.4412325821983,10.9611633996947,2,1
"C","Z",8.74196808452761,11.1027987522417,11.1031470224215,2,2
"C","Z",8.50374642480398,10.6917820785632,11.1384362294308,6,2
"C","Z",9.8378484662016,10.6326003740394,11.4107533902243,1,3
"C","Z",8.77941839154736,10.9340986034794,10.9029237953398,3,0
"C","Z",8.63846701503006,11.1550084932895,11.6072943972413,1,2
"C","Z",8.38186344055835,10.480159823649,10.5392419785652,1,1
"C","Z",8.3576421388411,10.9078455655788,10.3957786397785,0,2
"C","Z",8.71301326035101,11.483633630084,10.3855069112231,7,3
"C","Z",9.30899290858326,10.9458599543828,11.3711485120933,2,2
"C","Z",9.55492406946486,10.6507896662028,10.9585400288304,7,1
"C","Z",9.35379417691779,10.8620274157872,11.3949089609103,1,3
"C","Z",8.81817135145237,11.557324272681,10.8661467892215,0,2
"D","X",8.0298749686923,10.2750219806071,9.70405394889359,2,2
"D","X",7.64770176815996,10.6183379000408,9.81582371243675,4,3
"D","X",7.64139091921299,10.0695489285809,9.07369158787914,3,1
"D","X",8.44232524948846,10.2051375482452,9.41519236979294,2,2
"D","X",7.49220371069823,9.72077154382593,9.27898267682077,4,3
"D","X",8.97764698274623,10.3026853344652,10.5271611359877,3,0
"D","X",7.95484020301707,9.74683322890538,9.7013349543186,3,2
"D","X",8.10726941331461,9.28971724765213,10.3947299263951,3,3
"D","X",7.63073614763021,10.0639964828421,10.758245300846,2,4
"D","X",7.71280565511837,10.9729256088657,9.90411259544503,1,4
"D","X",7.34149193384738,10.4004571697865,10.1419394531762,4,1
"D","X",7.90853730581364,10.5826266949731,9.12446624030196,3,1
"D","X",8.20949120246223,10.1794278615466,9.5906651112401,6,6
"D","X",8.16215217208069,9.69572141084189,10.0281074246914,6,6
"D","X",7.60923175647262,9.89887957244486,10.1495434516681,4,6
"D","X",7.605689014573,9.86337594659404,9.62030094135056,3,4
"D","X",7.74890064082857,9.76565011010896,11.3424294996134,1,1
"D","X",8.74803033492318,10.3520836419649,9.77080493045381,3,5
"D","X",7.43134818966713,9.40131824881729,10.032121778315,4,6
"D","X",7.9104742028099,10.4331830660564,10.3248959335768,6,1
"D","X",8.95118091083946,10.4320762431129,9.986990682613,5,1
"D","X",7.9495125573356,9.40068882046562,9.67821630648644,5,3
"D","X",7.3200796480893,10.3197459989503,10.5226528319817,2,2
"D","X",7.66761528236297,11.2151133261723,10.8077726616036,0,3
"D","X",8.24272998945244,9.7213922590292,9.98515301447508,3,3
"D","Y",7.81219856416511,10.422452120704,10.2811336727015,4,5
"D","Y",7.71906181822511,9.6088990771903,9.95129375074868,1,5
"D","Y",7.82804138293577,10.5553557091014,10.5082276088511,7,2
"D","Y",8.04524832356961,10.1249123599633,9.42191630287007,2,5
"D","Y",8.79925438557291,10.8259576958116,11.1604301119972,6,3
"D","Y",7.95571744393056,9.27051463573154,9.69823437610583,1,1
"D","Y",8.54039974807576,9.97435105693732,9.27057529278095,4,1
"D","Y",8.31537705782528,9.7365374119372,9.82454108640347,5,2
"D","Y",7.94318005224693,9.90136756546185,10.0733542420725,5,2
"D","Y",7.2335489985547,9.685210628657,10.8118106038401,4,3
"D","Y",7.73944134122374,9.5830782097325,10.4556048383857,1,4
"D","Y",7.75506477343076,10.2893611873082,10.0712292160229,5,4
"D","Y",8.02357721638076,9.45620964296154,9.30525823800592,4,2
"D","Y",8.65009933883341,10.7420154657781,9.56698112766394,5,6
"D","Y",9.14653948691555,9.40689670734312,9.91835753388535,2,3
"D","Y",8.77379052949188,10.0505395756976,11.2765130567303,0,2
"D","Y",7.93342451783553,10.2664946434132,9.06988621289079,3,2
"D","Y",7.12173630222118,10.2933676695463,10.565527325923,2,4
"D","Y",7.80561006796413,9.84912666806681,9.73638287138304,5,5
"D","Y",8.04460361153665,10.0397509976642,10.8329954499937,6,4
"D","Y",8.42250650203372,10.4806320759048,9.4303996800133,1,6
"D","Y",8.48126398424214,9.27176704146179,10.0718116173314,6,3
"D","Y",8.34215471470823,9.60913014423396,9.45022452914862,4,2
"D","Y",7.30236282510027,10.1602011571583,10.4517582131808,3,3
"D","Y",8.42482152281668,9.7776090108315,10.741889744369,4,3
"D","Z",7.77672139178639,10.6850019969855,10.9753605032006,3,1
"D","Z",8.08740135008063,10.3366269316774,10.3988003287948,2,4
"D","Z",8.03727558858687,10.0360833762074,10.9216331272889,1,2
"D","Z",8.21408338248525,9.24612134123166,10.6232119543308,5,0
"D","Z",8.01233749141307,10.0130501126631,9.93406254408799,0,4
"D","Z",7.16626245120717,9.8417920659015,10.2385186191424,1,1
"D","Z",8.36824798238672,9.9488267432397,9.51400289426203,3,0
"D","Z",8.19301328417484,9.40922038647216,9.9073989152995,3,5
"D","Z",7.86717418736089,10.249329021915,10.6104818541744,0,1
"D","Z",8.05907225552334,9.48052177984648,10.2706420717412,2,6
"D","Z",8.06701932268423,9.88688900927879,10.2286786658127,2,1
"D","Z",8.1105097342805,10.1907129147257,9.4809344801564,1,2
"D","Z",8.82042308298874,9.60824210549348,9.69774338483294,6,3
"D","Z",7.89047481053326,10.29149570284,9.61769699312322,3,1
"D","Z",8.08403269194233,9.34174479917415,10.1976479350067,1,3
"D","Z",8.58419193653455,8.59511266051973,9.50474618476672,1,2
"D","Z",8.52709051168846,10.2324839953929,10.2810206950495,1,0
"D","Z",8.57263155519018,10.4202699134805,9.44179179403323,0,1
"D","Z",7.71126599947022,9.85707728820431,10.9142652290677,0,2
"D","Z",9.00124136514641,10.2520631272958,10.2302956747391,1,4
"D","Z",8.03335043546509,9.42204173745816,9.64949819387336,3,6
"D","Z",8.93342592235343,9.93642569658717,10.1205229662506,5,1
"D","Z",7.32454865698464,9.02924081197969,9.82377340038602,2,2
"D","Z",8.01049179317712,10.5905904457193,10.1855739798798,2,2
"D","Z",8.62495728548461,10.9299554307716,10.1217663593801,0,4
