"ISO3c","Country","GDP_per_capita","Perc_pop_internet_access","Land_area","Pop_growth","Pop_total","Perc_land_protected","Urban_land_area","Perc_urban_pop","region"
"ABW","Aruba",26631.4690408183,97.17,180,0.428016948088116,106766,18.9175762600279,172.8477478,43.697,"Latin America & Caribbean"
"AFG","Afghanistan",549.391787084908,11.44768809,652860,2.30381209309418,38928341,0.104707034792812,NA,26.026,"South Asia"
"AGO","Angola",2890.89289718216,14.33907936,1246700,3.21853035205175,32866268,6.97142669594584,1427.029541,66.825,"Sub-Saharan Africa"
"ALB","Albania",5064.06191586953,69.64285467,27400,-0.577942252408581,2837743,17.7360953122157,1689.403809,62.112,"Europe & Central Asia"
"AND","Andorra",40402.5398367679,91.56746703,470,0.154134127179226,77265,26.7277247815139,NA,87.916,"Europe & Central Asia"
"ARE","United Arab Emirates",41420.4957502097,99.14999796,71020,1.21942868246666,9890400,17.9549206384619,8568.158203,87.048,"Middle East & North Africa"
"ARG","Argentina",8692.70804630198,74.29490687,2736690,0.970053991438048,45376763,8.80825141581955,55032.20313,92.111,"Latin America & Caribbean"
"ARM","Armenia",4364.31221201217,68.24505226,28470,0.185983344838062,2963234,23.1105028060216,NA,63.313,"Europe & Central Asia"
"ASM","American Samoa",9445.80502807717,0,200,-0.208127919920259,55197,15.8477447307274,116.1668701,87.153,"East Asia & Pacific"
"ATG","Antigua and Barbuda",12870.1868119838,73,440,0.833667148911523,97928,18.5696736890488,266.2775574,24.433,"Latin America & Caribbean"
"AUS","Australia",56307.2806848652,86.54504885,7692020,1.25869817155796,25687041,19.2656223071572,36745.70313,86.241,"East Asia & Pacific"
"AUT","Austria",47008.7104329678,87.75220479,82520,0.419000872876687,8917205,28.397981655605,NA,58.748,"Europe & Central Asia"
"AZE","Azerbaijan",5593.22452252542,79.79999549,82654,0.852605731702236,10110116,10.1551256208372,NA,56.397,"Europe & Central Asia"
"BDI","Burundi",202.372052445493,2.660748535,25680,3.07610176014791,11890781,7.5914717058788,NA,13.708,"Sub-Saharan Africa"
"BEL","Belgium",44361.2483648185,90.37051309,30280,0.581620792438621,11555997,23.293342934656,12349.22852,98.079,"Europe & Central Asia"
"BEN","Benin",1273.5413171047,14.11901233,112760,2.69237381344614,12123198,29.6233712049703,1447.184937,48.415,"Sub-Saharan Africa"
"BFA","Burkina Faso",815.480855632121,15.87620691,273600,2.82323073597345,20903278,14.9228805539331,NA,30.607,"Sub-Saharan Africa"
"BGD","Bangladesh",1305.25933193765,12.9,130170,1.00277418143487,164689383,4.60596281196676,11125.3916,38.177,"South Asia"
"BGR","Bulgaria",8743.21699223087,67.94698094,108560,-0.697303108247042,6927288,34.7035801172141,6678.94043,75.686,"Europe & Central Asia"
"BHR","Bahrain",19018.554449692,99.70150438,780,3.61532480809725,1701583,6.62174781265092,549.2779541,89.506,"Middle East & North Africa"
"BHS","Bahamas, The",23971.1079949469,85,10010,0.961253495469737,393248,36.6336475275265,425.8963623,83.245,"Latin America & Caribbean"
"BIH","Bosnia and Herzegovina",6077.04356457794,69.94634763,51200,-0.613297985300864,3280815,1.39550157071326,1723.146729,49.02,"Europe & Central Asia"
"BLR","Belarus",6677.99892589229,82.78915209,202980,-0.201820684328915,9398861,9.35349335261769,7783.031738,79.483,"Europe & Central Asia"
"BLZ","Belize",3582.9781813196,47.0826258,22810,1.84529559225359,397621,37.6793655671877,508.0564575,46.025,"Latin America & Caribbean"
"BMU","Bermuda",94274.2163813149,98.37,54,-0.0156474933035009,63903,2.07991902345745,38.61519241,100,"North America"
"BOL","Bolivia",2345.48479359273,44.28614216,1083300,1.37952758307147,11673029,30.8654914952936,NA,70.123,"Latin America & Caribbean"
"BRA","Brazil",10672.1777388753,70.43428254,8358140,0.712872791114979,212559409,29.4196676737717,134981.375,87.073,"Latin America & Caribbean"
"BRB","Barbados",13249.4232194619,81.76077839,430,0.121868007673422,287371,1.27010819350234,420.3754272,31.191,"Latin America & Caribbean"
"BRN","Brunei Darussalam",32402.365659982,95,5270,0.961675067594484,437483,46.87211976066,1017.068604,78.25,"East Asia & Pacific"
"BTN","Bhutan",3007.69828073077,41.77264453,38140,1.11006114109419,771612,48.0078510451913,NA,42.316,"South Asia"
"BWA","Botswana",7306.50245849385,41.41379464,566730,2.05887502746375,2351625,29.1432374214093,NA,70.877,"Sub-Saharan Africa"
"CAF","Central African Republic",377.527368686071,4.339254945,622980,1.76684499168083,4829764,18.0648242198926,NA,42.198,"Sub-Saharan Africa"
"CAN","Canada",48617.0878945341,92.70137191,8965590,1.08959148655862,38005238,9.68557393581083,126511.1641,81.562,"North America"
"CHE","Switzerland",80132.425588101,93.14608695,39516.03,0.715961342750833,8636896,9.66518426119506,7898.148926,73.915,"Europe & Central Asia"
"CHI","Channel Islands",NA,NA,198,0.921644207578488,173859,NA,NA,30.963,NA
"CHL","Chile",14050.1761838708,82.32748693,743532,0.862530028020963,19116209,18.4944542424793,12027.5166,87.727,"Latin America & Caribbean"
"CHN","China",8405.18047349612,54.3,9424702.9,0.31409109311522,1402112000,15.449041955767,380679.3,61.428,"East Asia & Pacific"
"CIV","Cote d'Ivoire",1714.54069898774,36.45378947,318000,2.54058456481746,26378275,22.8846634839832,3466.161621,51.706,"Sub-Saharan Africa"
"CMR","Cameroon",1490.82964058637,23.20297197,472710,2.55430999948549,26545864,10.6005464149767,3680.405762,57.56,"Sub-Saharan Africa"
"COD","Congo, Dem. Rep.",413.709040341229,8.619904916,2267050,3.14265160815163,89561404,13.8332604673993,9061.722656,45.638,"Sub-Saharan Africa"
"COG","Congo, Rep.",2049.41786354009,8.65,341500,2.52500982802432,5518092,40.7380367837893,1087.161865,67.829,"Sub-Saharan Africa"
"COL","Colombia",7228.43654618322,65.00690072,1109500,1.07376749290975,50882884,14.8069558212089,36132.13672,81.425,"Latin America & Caribbean"
"COM","Comoros",1436.52360212743,8.478170295,1861,2.17435502569656,869595,10.1514342727337,196.407196,29.38,"Sub-Saharan Africa"
"CPV","Cabo Verde",3293.71602128856,57.16214635,4030,1.09448034644791,555988,2.89524038891919,180.3818817,66.652,"Sub-Saharan Africa"
"CRI","Costa Rica",9619.71602657903,81.20259644,51060,0.91805992540637,5094114,27.6026953211753,4051.562988,80.771,"Latin America & Caribbean"
"CUB","Cuba",6804.86678441019,61.83630006,103800,-0.0606175631202249,11326616,16.5532324654921,9572.447266,77.194,"Latin America & Caribbean"
"CUW","Curacao",NA,68.12721625,444,-1.55353494887349,155014,15.4623806987241,NA,89.062,"Latin America & Caribbean"
"CYM","Cayman Islands",80755.96394823,81.06769325,240,1.18163434441994,65720,10.7627698356687,160.9671021,100,"Latin America & Caribbean"
"CYP","Cyprus",30438.4675161368,86.06362996,9240,0.7304469214141,1207361,18.6504409036147,2280.400391,66.821,"Europe & Central Asia"
"CZE","Czech Republic",22843.0385885642,80.86694441,77200,0.252925088481678,10698896,22.1556760039807,NA,74.061,"Europe & Central Asia"
"DEU","Germany",45065.0824555703,88.13451691,349380,0.177430343551393,83240525,37.7519230162364,62374.19922,77.453,"Europe & Central Asia"
"DJI","Djibouti",1343.27512498519,55.68140925,23180,1.4728347321268,988002,1.57464592463938,149.8288422,78.062,"Middle East & North Africa"
"DMA","Dominica",5741.21824339887,69.61966879,750,0.254522074272768,71991,21.9868244583373,251.302948,71.09,"Latin America & Caribbean"
"DNK","Denmark",63880.093657245,98.04643475,40000,0.291641177476633,5831404,18.1020211937511,9295.174805,88.116,"Europe & Central Asia"
"DOM","Dominican Republic",7389.69053234985,74.82428986,48310,1.00939108305127,10847904,26.2367518845671,5089.375977,82.54,"Latin America & Caribbean"
"DZA","Algeria",4362.73953647076,49.03846808,2381741,1.83653350440444,43851043,7.49506002830462,30195.79688,73.733,"Middle East & North Africa"
"ECU","Ecuador",4628.31668018853,54.06292473,248360,1.53874114229084,17643060,21.6861189348777,10905.65137,64.166,"Latin America & Caribbean"
"EGY","Egypt, Arab Rep.",3058.31071773864,57.28286878,995450,1.92024763689114,102334403,13.1360553831375,24270.23242,42.783,"Middle East & North Africa"
"ERI","Eritrea",537.491870813951,1.30890698,101000,1.36371886893331,3213969,4.87239093903435,366.6149292,35.771,"Sub-Saharan Africa"
"ESP","Spain",29600.3523833162,90.71866533,499603.479,0.461546666660309,47351567,28.0656336491221,69794.58594,80.81,"Europe & Central Asia"
"EST","Estonia",20161.6512475064,89.53232756,43470,0.312947615313683,1331057,20.2184748207416,2614.681396,69.229,"Europe & Central Asia"
"ETH","Ethiopia",623.095140151288,18.61805145,1129300.39,2.54138646419898,114963583,18.4749603066502,5166.71582,21.695,"Sub-Saharan Africa"
"FIN","Finland",47863.7980745102,89.60738511,303920,0.164906516324292,5530719,15.0232916032633,20052.17383,85.517,"Europe & Central Asia"
"FJI","Fiji",3808.20365540165,49.96637301,18270,0.726492630179755,896444,5.41119687502089,1746.58667,57.247,"East Asia & Pacific"
"FRA","France",40520.6517970746,83.33974409,547557,0.211906588145578,67391582,25.7919660039,86463.0625,80.975,"Europe & Central Asia"
"FRO","Faroe Islands",48541.4011938484,97.58195894,1396,0.385475452201148,48865,2.32909328433195,335.4758301,42.398,"Europe & Central Asia"
"FSM","Micronesia, Fed. Sts.",2732.96408462251,35.30405287,700,1.05755425586524,115021,0.0491628404366948,243.1120605,22.933,"East Asia & Pacific"
"GAB","Gabon",8839.76017048115,50.32012015,257670,2.41695722640636,2225728,22.4427560590428,836.4829102,90.092,"Sub-Saharan Africa"
"GBR","United Kingdom",39102.8965780963,92.51662855,241930,0.565404594994568,67215293,28.683437277978,58698.75,83.903,"Europe & Central Asia"
"GEO","Georgia",4678.66257824508,68.84671356,69490,-0.165748398790001,3714000,8.33359715447386,3602.762939,59.453,"Europe & Central Asia"
"GHA","Ghana",1848.25029559229,37.88415262,227540,2.13076347294538,31072945,15.0573797984075,6239.439453,57.349,"Sub-Saharan Africa"
"GIB","Gibraltar",NA,94.44447158,10,-0.0445123677542554,33691,32.4234218176205,4.473595619,100,"Europe & Central Asia"
"GIN","Guinea",959.978704251001,21.83002304,245720,2.79160707922075,13132792,35.6461939863954,1473.595703,36.875,"Sub-Saharan Africa"
"GMB","Gambia, The",791.953878049397,19.83645444,10120,2.89536550569189,2416664,4.10736207362125,446.1829224,62.582,"Sub-Saharan Africa"
"GNB","Guinea-Bissau",590.193738243452,3.930509152,28120,2.42141061795942,1967998,16.662653555347,306.3417664,44.196,"Sub-Saharan Africa"
"GNQ","Equatorial Guinea",8465.97640410077,26.23999996,28050,3.40761945937311,1402985,19.2667589536442,97.47089386,73.1,"Sub-Saharan Africa"
"GRC","Greece",21577.2079907861,75.67120669,128900,-0.0562855184238398,10715549,35.2163408633262,18519.16406,79.715,"Europe & Central Asia"
"GRD","Grenada",8152.70950996027,59.07173536,340,0.460536799472609,112519,9.77750817324608,169.5156097,36.537,"Latin America & Caribbean"
"GRL","Greenland",49311.7670601587,69.48246178,410450,0.252238303411568,56367,41.1536023513172,33.34839249,87.282,"Europe & Central Asia"
"GTM","Guatemala",3263.6692548658,40.70304908,107160,1.51998785357799,16858333,20.0478790782543,4132.351074,51.836,"Latin America & Caribbean"
"GUM","Guam",32235.7652825319,80.50546556,540,0.885514507508963,168783,22.4691376782389,515.956604,94.938,"East Asia & Pacific"
"GUY","Guyana",8741.16082530405,37.32583679,196850,0.482243720375381,786559,8.73748680882895,626.756958,26.786,"Latin America & Caribbean"
"HKG","Hong Kong SAR, China",35587.5634863488,91.74340039,1050,-0.341579602527262,7481800,41.8836803684402,901.5428467,100,"East Asia & Pacific"
"HND","Honduras",2010.54489641962,32.13636364,111890,1.61313593312324,9904608,23.8855522578119,3702.359375,58.359,"Latin America & Caribbean"
"HRV","Croatia",15204.3467086723,79.07978368,56590,-0.445069568982822,4047200,38.2536302140039,5302.795898,57.553,"Europe & Central Asia"
"HTI","Haiti",1188.29576359864,32.47362713,27560,1.23054925437201,11402533,1.9498829806779,764.3450928,57.088,"Latin America & Caribbean"
"HUN","Hungary",16745.0857201244,80.37169361,91260,-0.219026829355275,9749763,22.5975581595624,NA,71.942,"Europe & Central Asia"
"IDN","Indonesia",4312.35308223753,47.69064898,1877519,1.06517898587775,273523621,12.1656963637972,42076.82813,56.641,"East Asia & Pacific"
"IMN","Isle of Man",94519.4160428284,NA,570,0.522342171357118,85032,3.72176999077853,241.8645325,52.898,"Europe & Central Asia"
"IND","India",1961.29871122172,20.08130004,2973190,0.989413800188014,1380004385,5.96651940171319,222688.2344,34.926,"South Asia"
"IRL","Ireland",81297.0669473559,84.52230206,68890,1.21632299788168,4994724,14.4412618535015,5638.355957,63.653,"Europe & Central Asia"
"IRN","Iran, Islamic Rep.",5943.59733025937,70.00455222,1628760,1.29302669121629,83992953,8.61413274206963,69242.76563,75.874,"Middle East & North Africa"
"IRQ","Iraq",4927.04830769522,75.00000131,434128,2.29530432997508,40222503,1.53341211794309,12429.91504,70.893,"Middle East & North Africa"
"ISL","Iceland",47630.3344137744,99.01095399,100830,1.61271631750822,366425,18.15153229479,1023.837036,93.898,"Europe & Central Asia"
"ISR","Israel",33817.4182358118,86.78787762,21640,1.78321064217074,9216900,19.9465990771498,6399.019531,92.587,"Middle East & North Africa"
"ITA","Italy",32901.8829242099,74.38718292,297730,-0.293517052809649,59554023,21.5390596088817,73540.88281,71.039,"Europe & Central Asia"
"JAM","Jamaica",4357.96026073418,55.07206705,10830,0.436048924264813,2961161,15.916513533077,3000.631592,56.311,"Latin America & Caribbean"
"JOR","Jordan",3241.65747648319,66.79031443,88780,0.999208651805595,10203140,1.77057864219415,3383.973877,91.418,"Middle East & North Africa"
"JPN","Japan",49000.2560402533,91.28160849,364500,-0.340268777594094,125836021,29.3875386330145,108678.2422,91.782,"East Asia & Pacific"
"KAZ","Kazakhstan",11075.0081569579,81.87762554,2699700,1.29209842042897,18754440,3.3120856618332,NA,57.671,"Europe & Central Asia"
"KEN","Kenya",1206.22156699649,22.56511937,569140,2.25187943057208,53771300,12.3633596228224,4187.614746,27.995,"Sub-Saharan Africa"
"KGZ","Kyrgyz Republic",1000.21308341453,38.19903776,191800,2.07552017323031,6591600,6.70269298312778,NA,36.856,"Europe & Central Asia"
"KHM","Cambodia",1212.02549983639,40.5459865,176520,1.39996509699246,16718971,26.027716099692,1152.062866,24.232,"East Asia & Pacific"
"KIR","Kiribati",1807.64218886486,14.58181818,810,1.55073260348907,119446,22.3604134900276,3.643230915,55.594,"East Asia & Pacific"
"KNA","St. Kitts and Nevis",15215.1857510107,80.71019081,260,0.675308623400813,53192,3.3166347171568,230.6646423,30.843,"Latin America & Caribbean"
"KOR","Korea, Rep.",28361.1890143807,96.15758265,97520,0.138141336294406,51780579,11.6711249951255,21922.01563,81.414,"East Asia & Pacific"
"KWT","Kuwait",32702.2476691332,99.54267645,17820,1.49775613966585,4270563,17.5006769636402,3942.298828,100,"Middle East & North Africa"
"LAO","Lao PDR",1835.66226558967,25.51043508,230800,1.46904562085281,7275556,16.6822056274146,1018.75415,36.29,"East Asia & Pacific"
"LBN","Lebanon",4636.90186150712,78.18077489,10230,-0.442463494176285,6825442,2.59730862397557,2317.423828,88.925,"Middle East & North Africa"
"LBR","Liberia",489.508455942967,7.984479722,96320,2.40736760615038,5057677,4.05131092547338,434.2752991,52.089,"Sub-Saharan Africa"
"LBY","Libya",5503.73101421671,21.75892062,1759540,1.3750057277357,6871287,0.211847868078981,10082.89258,80.691,"Middle East & North Africa"
"LCA","St. Lucia",7426.72861119881,50.81524478,610,0.45521114346163,183629,18.7452095914066,351.2103882,18.841,"Latin America & Caribbean"
"LIE","Liechtenstein",141192.534673018,99.54661245,160,0.307260244097371,38137,11.9351041815517,NA,14.416,"Europe & Central Asia"
"LKA","Sri Lanka",3845.68313565676,34.1133479,61864,0.530626559530355,21919000,29.8619988979122,4016.146484,18.713,"South Asia"
"LSO","Lesotho",1087.9585929226,29.78780333,30360,0.796017062223488,2142252,0.261388681242792,NA,29.028,"Sub-Saharan Africa"
"LTU","Lithuania",18390.7606687773,81.58186838,62630,0.0201473044178691,2794700,17.0231009753366,4610.856445,68.046,"Europe & Central Asia"
"LUX","Luxembourg",107457.984960026,97.06129871,2430,1.96033351479549,632275,40.87274137855,801.083374,91.453,"Europe & Central Asia"
"LVA","Latvia",16201.8328953086,86.13545644,62090,-0.643399845442153,1901548,18.1713211908866,3278.516846,68.315,"Europe & Central Asia"
"MAC","Macao SAR, China",24350.3439768089,86.46792571,32.9,1.37947338188026,649342,NA,17.72437096,100,"East Asia & Pacific"
"MAF","St. Martin (French part)",NA,NA,50,1.71408169965882,38659,12.77155153357,NA,NA,"Latin America & Caribbean"
"MAR","Morocco",3126.96406913402,74.37631447,446300,1.19592077719908,36910558,30.7776011103996,12057.44141,63.532,"Middle East & North Africa"
"MCO","Monaco",209224.505500718,97.05297684,2.027,0.708343220788784,39244,33.1551035825643,1.920578122,100,"Europe & Central Asia"
"MDA","Moldova",3513.60404668124,76.12451989,32885.3,-1.72056466408314,2617820,4.15053454855149,2607.522217,42.849,"Europe & Central Asia"
"MDG","Madagascar",458.814928509715,4.713662899,581800,2.64087322692548,27691019,5.58955631461027,2272.414795,38.534,"Sub-Saharan Africa"
"MDV","Maldives",5663.30474259163,63.18566588,300,1.78913012096883,540542,1.20909567705006,0,40.669,"South Asia"
"MEX","Mexico",9322.33571304186,70.06991047,1943950,1.05824003448927,128932753,14.5005326014623,102418.1094,80.731,"Latin America & Caribbean"
"MHL","Marshall Islands",3189.56503662896,38.70116262,180,0.683140343718677,59194,11.9157086072553,0,77.794,"East Asia & Pacific"
"MKD","North Macedonia",5370.98122121275,79.16775519,25220,-0.00374384605348414,2083380,9.65406515792627,2667.351074,58.482,"Europe & Central Asia"
"MLI","Mali",755.902899011372,12.72064096,1220190,2.97104277387719,20250834,8.23161005507261,2910.42749,43.909,"Sub-Saharan Africa"
"MLT","Malta",26013.5054616294,85.77859638,320,4.12416960622934,525285,30.2863758326223,293.3409119,94.744,"Middle East & North Africa"
"MMR","Myanmar",1478.12473246512,23.62108195,652790,0.671933327635634,54409794,6.37050102009697,6960.023438,31.141,"East Asia & Pacific"
"MNE","Montenegro",7292.67039645545,73.47666575,13450,-0.0498494075831493,621718,6.40071102866758,NA,67.488,"Europe & Central Asia"
"MNG","Mongolia",4053.63263613099,51.07999408,1557255,1.63381332696237,3278292,17.7138825654778,NA,68.657,"East Asia & Pacific"
"MNP","Northern Mariana Islands",16447.3109258385,0,460,0.599461584295658,57557,7.6694498339144,108.512558,91.798,"East Asia & Pacific"
"MOZ","Mozambique",564.644847192848,20.7740003,786380,2.88683035436546,31255435,21.5932282429122,2739.14502,37.074,"Sub-Saharan Africa"
"MRT","Mauritania",1683.85616570981,20.80096366,1030700,2.70222792468346,4649660,0.621988213831289,771.6014404,55.327,"Sub-Saharan Africa"
"MUS","Mauritius",9272.84321906526,63.99989817,2030,0.00229117608844013,1265740,4.7253888127124,1276.015869,40.76,"Sub-Saharan Africa"
"MWI","Malawi",526.932201677988,13.78216439,94280,2.65493985228086,19129955,22.8760477102777,1815.103394,17.427,"Sub-Saharan Africa"
"MYS","Malaysia",11637.3511970661,84.21322418,328550,1.29428505685727,32365998,19.1193165594385,15564.95215,77.16,"East Asia & Pacific"
"NAM","Namibia",5312.94867779823,36.83740647,823290,1.84267165011262,2540916,37.8909310253112,2467.779053,52.033,"Sub-Saharan Africa"
"NCL","New Caledonia",NA,82.0058408,18280,0.242977699337273,271960,54.4041576282141,208.4334564,71.518,"East Asia & Pacific"
"NER","Niger",550.440806329148,5.250487687,1266700,3.77135127458367,24206636,17.3170925189084,NA,16.626,"Sub-Saharan Africa"
"NGA","Nigeria",2273.21856061168,7.469439317,910770,2.54297340536727,206139587,13.9295836103116,17196.23438,51.958,"Sub-Saharan Africa"
"NIC","Nicaragua",1721.81825546025,27.86304001,120340,1.2004799883363,6624554,37.2258679264252,2882.378662,59.012,"Latin America & Caribbean"
"NLD","Netherlands",53081.3110075573,93.2885906,33670,0.55347099272609,17441139,11.2437344510112,12802.99316,92.236,"Europe & Central Asia"
"NOR","Norway",90884.6145970484,98.00000439,365107.85,0.588757324043059,5379475,17.1064928744818,20282.20508,82.974,"Europe & Central Asia"
"NPL","Nepal",832.711063201292,21.40351043,143350,1.8290862928371,29136808,23.6260419833246,NA,20.576,"South Asia"
"NRU","Nauru",9611.002587385,62.38512451,20,0.648210437104788,10834,NA,11.98700333,100,"East Asia & Pacific"
"NZL","New Zealand",37922.2391359625,90.81109307,263310,2.08680413331013,5084300,32.5452558558454,8116.299805,86.699,"East Asia & Pacific"
"OMN","Oman",15081.9978325074,92.40844424,309500,2.61143663007279,5106622,2.5727331813508,5651.354004,86.276,"Middle East & North Africa"
"PAK","Pakistan",1168.34297401467,17.07090203,770880,1.97831956650447,220892331,12.3145852779876,35871.94141,37.165,"South Asia"
"PAN","Panama",9611.28542532737,63.62841477,74177,1.59625723019903,4314768,20.8919399833618,2892.144043,68.414,"Latin America & Caribbean"
"PER","Peru",5685.37083870191,59.9505036,1280000,1.40921005836136,32971846,21.3141727885924,16425.76758,78.297,"Latin America & Caribbean"
"PHL","Philippines",2980.01581411657,43.02661187,298170,1.34542996462104,109581085,15.3166593209145,10817.37305,47.408,"East Asia & Pacific"
"PLW","Palau",12082.5404036922,26.97033263,460,0.504253970702902,18092,28.0001910270941,30.74201965,80.988,"East Asia & Pacific"
"PNG","Papua New Guinea",2346.80107304266,11.20919659,452860,1.9287015742933,8947027,3.06592990438946,2003.610596,13.345,"East Asia & Pacific"
"POL","Poland",16945.2351796873,84.51645192,306170,-0.0386557422532846,37950802,39.6501395273886,30501.3418,60.043,"Europe & Central Asia"
"PRI","Puerto Rico",26822.4440819432,70.8743212,8870,0.0106454125886843,3194034,7.26916490580618,8511.401367,93.581,"Latin America & Caribbean"
"PRK","Korea, Dem. People's Rep.",NA,0,120410,0.437971578219383,25778815,2.43534150328306,2343.61377,62.381,"East Asia & Pacific"
"PRT","Portugal",22769.6819060936,75.34637155,91605.6,0.187462779794563,10305564,22.9011800781885,12764.67676,66.31,"Europe & Central Asia"
"PRY","Paraguay",5162.95915101487,68.51762842,397300,1.2399108173403,7132530,14.3147360800329,NA,62.183,"Latin America & Caribbean"
"PSE","West Bank and Gaza",2549.04449442595,70.62260685,6020,2.48654993848325,4803269,8.3592518432039,2496.458252,76.719,"Middle East & North Africa"
"PYF","French Polynesia",NA,72.70389531,3520,0.578020813572585,280904,1.95319459774213,238.1499786,61.975,"East Asia & Pacific"
"QAT","Qatar",59923.9596577558,99.65280421,11490,1.71500358488996,2881060,13.2292354317909,1495.149292,99.235,"Middle East & North Africa"
"ROU","Romania",11664.8517248155,73.65748258,230080,-0.442473206930647,19286123,24.461867500098,15594.78906,54.194,"Europe & Central Asia"
"RUS","Russian Federation",11786.6213075834,82.64216187,16376870,-0.209476796881133,144104080,9.72691481458987,187538.1445,74.754,"Europe & Central Asia"
"RWA","Rwanda",849.035103820977,21.76763262,24670,2.54338844179175,12952209,9.11408907313889,NA,17.432,"Sub-Saharan Africa"
"SAU","Saudi Arabia",19390.0189343094,95.7247356,2149690,1.57883732958732,34813867,4.76012714075407,41223.73828,84.287,"Middle East & North Africa"
"SDN","Sudan",1939.93305151612,30.87029573,1849233.715,2.39107177389208,43849269,2.28176318372903,6517.513672,35.253,"Sub-Saharan Africa"
"SEN","Senegal",1500.23892447591,29.64312367,192530,2.70939118149213,16743930,25.3527742991175,1796.192627,48.122,"Sub-Saharan Africa"
"SGP","Singapore",56349.0294237294,88.94925269,709,-0.311904961250833,5685807,5.55455982847758,565.5597534,100,"East Asia & Pacific"
"SLB","Solomon Islands",1632.48457397859,11.92422906,27990,2.5146180244063,686878,2.21026612316804,72.10932922,24.67,"East Asia & Pacific"
"SLE","Sierra Leone",468.493426055996,13.23693043,72180,2.07450135530529,7976985,9.38631962647526,710.4832764,42.923,"Sub-Saharan Africa"
"SLV","El Salvador",3279.49651626714,33.8207289,20720,0.50466302323087,6486201,8.77628667233756,3598.269287,73.444,"Latin America & Caribbean"
"SMR","San Marino",50894.2922333515,60.18230126,60,0.218282733201192,33938,NA,57.78162003,97.499,"Europe & Central Asia"
"SOM","Somalia",NA,2.004048698,627340,2.87428009490378,15893219,0.83,398.7160645,46.141,"Sub-Saharan Africa"
"SRB","Serbia",7197.45991571074,77.41677362,87460,-0.534322699558648,6908224,6.61310734024645,NA,56.446,"Europe & Central Asia"
"SSD","South Sudan",730.932110885649,7.977428907,631928.123,1.18275937083062,11193729,15.5015012515745,NA,20.199,"Sub-Saharan Africa"
"STP","Sao Tome and Principe",1315.66493040437,29.9312292,960,1.89453605124968,219161,29.2559098318401,68.23683167,74.354,"Sub-Saharan Africa"
"SUR","Suriname",7068.26241460026,48.94517397,156000,0.902576938680272,586634,14.5201387866369,692.7034912,66.149,"Latin America & Caribbean"
"SVK","Slovak Republic",19988.0460827906,82.8536605,48080,0.0857694756149868,5458827,37.6304133373472,NA,53.76,"Europe & Central Asia"
"SVN","Slovenia",25759.2208435193,83.1083578,20136.4,0.560630293306558,2100126,53.6229604410885,2509.15625,55.118,"Europe & Central Asia"
"SWE","Sweden",56068.2564629485,94.49344341,407310,0.722703912882934,10353442,14.8820274643842,31152.32031,87.977,"Europe & Central Asia"
"SWZ","Eswatini",4690.15765574473,30.3,17200,1.04242295901109,1160164,4.23300820628733,802.2711182,24.171,"Sub-Saharan Africa"
"SXM","Sint Maarten (Dutch part)",NA,NA,34,0.19375810832126,40812,0.000372593988169995,NA,100,"Latin America & Caribbean"
"SYC","Seychelles",12598.7871963787,58.76981124,460,0.853707878128979,98462,42.0940459472333,122.5104828,57.546,"Sub-Saharan Africa"
"SYR","Syrian Arab Republic",NA,34.25340193,183630,2.49081534407701,17500657,0.685302813189004,11955.19727,55.475,"Middle East & North Africa"
"TCA","Turks and Caicos Islands",21029.6956335354,0,950,1.36261729685353,38718,44.3674254967153,17.49214363,93.605,"Latin America & Caribbean"
"TCD","Chad",782.958993436058,6.49999812,1259200,2.95935371013085,16425859,20.3544358034532,NA,23.52,"Sub-Saharan Africa"
"TGO","Togo",692.506541044045,12.36022497,54390,2.40066351625992,8278737,27.621242705615,1663.073608,42.8,"Sub-Saharan Africa"
"THA","Thailand",6094.43287260034,66.65241317,510890,0.250165166562935,69799978,18.8091720900762,36597.01563,51.43,"East Asia & Pacific"
"TJK","Tajikistan",1147.07849788532,21.96,138790,2.29738984750059,9537642,22.2786610881726,NA,27.506,"Europe & Central Asia"
"TKM","Turkmenistan",8004.99840811401,21.25099741,469930,1.48822439500971,6031187,3.24826224726187,NA,52.516,"Europe & Central Asia"
"TLS","Timor-Leste",875.516842826485,27.49273173,14870,1.9392833553798,1318442,13.0574664834943,359.4190674,31.32,"East Asia & Pacific"
"TON","Tonga",4354.95040327225,41.24872764,720,1.14181474007885,105697,15.9127902459233,181.8270264,23.099,"East Asia & Pacific"
"TTO","Trinidad and Tobago",13707.6165455822,77.32605293,5130,0.323640628033623,1399491,30.5928101253097,2286.748047,53.214,"Latin America & Caribbean"
"TUN","Tunisia",3983.94278478118,66.6999983,155360,1.05385412657395,11818618,7.91467724685807,9897.881836,69.568,"Middle East & North Africa"
"TUR","Turkey",15225.6146040092,73.97670403,769630,1.08419395235039,84339067,0.218488653218068,44090.15625,76.105,"Europe & Central Asia"
"TUV","Tuvalu",4065.89204809552,49.31833862,30,1.16860629592603,11792,1.95194115592284,0,64.014,"East Asia & Pacific"
"TZA","Tanzania",976.156625437215,15.99999943,885800,2.93677770402726,59734213,38.1455762725252,3405.80542,35.227,"Sub-Saharan Africa"
"UGA","Uganda",958.192698225771,23.70653091,200520,3.26971334741299,45741000,16.0639496289362,NA,24.954,"Sub-Saharan Africa"
"UKR","Ukraine",3115.86076570536,62.55315539,579400,-0.568251538691365,44134693,3.98675314313722,32160.1582,69.608,"Europe & Central Asia"
"URY","Uruguay",13430.7189086341,76.94955197,175020,0.345932798178836,3473727,3.44620192299909,4689.679688,95.515,"Latin America & Caribbean"
"USA","United States",53748.9714326683,88.49890317,9147420,0.350911063312921,329484123,12.9938720224773,802053.5923,82.664,"North America"
"UZB","Uzbekistan",2457.40067512568,55.20000067,440555,1.92212652692564,34232050,3.37521371527249,NA,50.416,"Europe & Central Asia"
"VCT","St. Vincent and the Grenadines",6654.14461365989,20.68943522,390,0.319581386016186,110947,22.4196222232063,111.6811523,53.032,"Latin America & Caribbean"
"VEN","Venezuela, RB",14026.3664129191,64.31336383,882050,-0.280539304004186,28435943,54.1441744357702,34403.92578,88.279,"Latin America & Caribbean"
"VGB","British Virgin Islands",NA,77.70426829,150,0.676956293539422,30237,9.10881468166607,51.4707756,48.515,"Latin America & Caribbean"
"VIR","Virgin Islands (U.S.)",30224.4242744209,64.3774943,350,-0.35593743409178,106290,13.7945741945059,302.0132141,95.939,"Latin America & Caribbean"
"VNM","Vietnam",2123.45605979749,68.7,310070,0.904517905712374,97338583,7.57677987501149,7589.041504,37.34,"East Asia & Pacific"
"VUT","Vanuatu",2539.57300878907,25.71978784,12190,2.39471636629146,307150,4.20053186765401,97.80545807,25.525,"East Asia & Pacific"
"WSM","Samoa",3738.26680925983,33.61093932,2830,0.665989824539763,198410,7.34958500166056,108.1327591,17.889,"East Asia & Pacific"
"XKX","Kosovo",4230.27604929602,89.44303197,10887,-0.757524967757475,1775378,NA,NA,NA,NA
"YEM","Yemen, Rep.",632.908714621735,26.71835477,527970,2.25156062737417,29825968,0.771943980228183,4703.399902,37.908,"Middle East & North Africa"
"ZAF","South Africa",6748.23435464928,56.16739447,1213090,1.27335626330668,59308690,7.99816492065785,53460.3125,67.354,"Sub-Saharan Africa"
"ZMB","Zambia",1558.32300651401,14.2999971,743390,2.88568592086236,18383956,37.8700104508234,NA,44.629,"Sub-Saharan Africa"
"ZWE","Zimbabwe",1058.84582705136,27.05548769,386850,1.47387141587655,14862927,27.2145851759138,NA,32.242,"Sub-Saharan Africa"
